…
``` r
ts1 <- read_xlsx(xlsx, sheet = "timeseries.1")
ts2 <- read_xlsx(xlsx, sheet = "timeseries.2")
assess<-read_xlsx(xlsx,sheet = "assessment")


ts <- bind_rows(ts1, ts2) |>
      distinct() |> 
      filter(tsid == "TCbest-MT")
ts
```

    ## # A tibble: 122,255 × 6
    ##    assessid                       stockid stocklong         tsid  tsyear tsvalue
    ##    <chr>                          <chr>   <chr>             <chr>  <dbl>   <dbl>
    ##  1 ABARES-BGRDRSE-1960-2011-CHING BGRDRSE Blue grenadier S… TCbe…   1960      NA
    ##  2 ABARES-BGRDRSE-1960-2011-CHING BGRDRSE Blue grenadier S… TCbe…   1961      NA
    ##  3 ABARES-BGRDRSE-1960-2011-CHING BGRDRSE Blue grenadier S… TCbe…   1962      NA
    ##  4 ABARES-BGRDRSE-1960-2011-CHING BGRDRSE Blue grenadier S… TCbe…   1963      NA
    ##  5 ABARES-BGRDRSE-1960-2011-CHING BGRDRSE Blue grenadier S… TCbe…   1964      NA
    ##  6 ABARES-BGRDRSE-1960-2011-CHING BGRDRSE Blue grenadier S… TCbe…   1965      NA
    ##  7 ABARES-BGRDRSE-1960-2011-CHING BGRDRSE Blue grenadier S… TCbe…   1966      NA
    ##  8 ABARES-BGRDRSE-1960-2011-CHING BGRDRSE Blue grenadier S… TCbe…   1967      NA
    ##  9 ABARES-BGRDRSE-1960-2011-CHING BGRDRSE Blue grenadier S… TCbe…   1968      NA
    ## 10 ABARES-BGRDRSE-1960-2011-CHING BGRDRSE Blue grenadier S… TCbe…   1969      NA
    ## # ℹ 122,245 more rows

``` r
metrics <- read_xlsx(xlsx, sheet = "tsmetrics")

units <- metrics |> 
  filter(tscategory == "CATCH or LANDINGS") |>
  filter(tsunitslong == "Metric tons")
metrics
```

    ## # A tibble: 452 × 6
    ##    tscategory             tsshort       tslong tsunitsshort tsunitslong tsunique
    ##    <chr>                  <chr>         <chr>  <chr>        <chr>       <chr>   
    ##  1 OTHER TIME SERIES DATA AQ            Aquac… MT           metric tons AQ-MT   
    ##  2 OTHER TIME SERIES DATA ASP           Annua… MT           Metric tons ASP-MT  
    ##  3 TOTAL BIOMASS          BdivBmgtpref  Gener… dimensionle… dimensionl… BdivBmg…
    ##  4 TOTAL BIOMASS          BdivBmgttouse Gener… dimensionle… dimensionl… BdivBmg…
    ##  5 TOTAL BIOMASS          BdivBmsypref  Gener… dimensionle… dimensionl… BdivBms…
    ##  6 TOTAL BIOMASS          BdivBmsytouse Gener… dimensionle… dimensionl… BdivBms…
    ##  7 OTHER TIME SERIES DATA BYCAT         Indus… MT           Metric tons BYCAT-MT
    ##  8 CATCH or LANDINGS      Cadvised-CMB  Scien… MT           Metric tons Cadvise…
    ##  9 CATCH or LANDINGS      Cadvised      Scien… MT           Metric tons Cadvise…
    ## 10 CATCH or LANDINGS      CdivMEANC     Catch… ratio        ratio       CdivMEA…
    ## # ℹ 442 more rows

``` r
ts <- ts |> left_join(metrics, by=c("tsid" = "tsunique"))
ts
```

    ## # A tibble: 122,255 × 11
    ##    assessid     stockid stocklong tsid  tsyear tsvalue tscategory tsshort tslong
    ##    <chr>        <chr>   <chr>     <chr>  <dbl>   <dbl> <chr>      <chr>   <chr> 
    ##  1 ABARES-BGRD… BGRDRSE Blue gre… TCbe…   1960      NA CATCH or … TCbest  Gener…
    ##  2 ABARES-BGRD… BGRDRSE Blue gre… TCbe…   1961      NA CATCH or … TCbest  Gener…
    ##  3 ABARES-BGRD… BGRDRSE Blue gre… TCbe…   1962      NA CATCH or … TCbest  Gener…
    ##  4 ABARES-BGRD… BGRDRSE Blue gre… TCbe…   1963      NA CATCH or … TCbest  Gener…
    ##  5 ABARES-BGRD… BGRDRSE Blue gre… TCbe…   1964      NA CATCH or … TCbest  Gener…
    ##  6 ABARES-BGRD… BGRDRSE Blue gre… TCbe…   1965      NA CATCH or … TCbest  Gener…
    ##  7 ABARES-BGRD… BGRDRSE Blue gre… TCbe…   1966      NA CATCH or … TCbest  Gener…
    ##  8 ABARES-BGRD… BGRDRSE Blue gre… TCbe…   1967      NA CATCH or … TCbest  Gener…
    ##  9 ABARES-BGRD… BGRDRSE Blue gre… TCbe…   1968      NA CATCH or … TCbest  Gener…
    ## 10 ABARES-BGRD… BGRDRSE Blue gre… TCbe…   1969      NA CATCH or … TCbest  Gener…
    ## # ℹ 122,245 more rows
    ## # ℹ 2 more variables: tsunitsshort <chr>, tsunitslong <chr>

``` r
stock <- read_xlsx(xlsx, sheet = "stock")
stock
```

    ## # A tibble: 1,509 × 15
    ##    stockid             tsn scientificname     commonname areaid stocklong region
    ##    <chr>             <dbl> <chr>              <chr>      <chr>  <chr>     <chr> 
    ##  1 ACADRED2J3K      166774 Sebastes fasciatus Acadian r… Canad… Acadian … Canad…
    ##  2 ACADRED3LNO-UT12 166774 Sebastes fasciatus Acadian r… Canad… Acadian … Canad…
    ##  3 ACADREDGOMGB     166774 Sebastes fasciatus Acadian r… USA-N… Acadian … US Ea…
    ##  4 ACADREDUT3       166774 Sebastes fasciatus Acadian r… Canad… Acadian … Canad…
    ##  5 ACMACKSARG       172413 Scomber colias     Argentine… Argen… Argentin… South…
    ##  6 AFLONCH          166156 Beryx splendens    Alfonsino  multi… Alfonsin… South…
    ##  7 ALBAIO           172419 Thunnus alalunga   Albacore … multi… Albacore… India…
    ##  8 ALBAMED          172419 Thunnus alalunga   Albacore … multi… Albacore… Medit…
    ##  9 ALBANATL         172419 Thunnus alalunga   Albacore … multi… Albacore… Atlan…
    ## 10 ALBANPAC         172419 Thunnus alalunga   Albacore … multi… Albacore… Pacif…
    ## # ℹ 1,499 more rows
    ## # ℹ 8 more variables: primary_country <chr>, primary_FAOarea <dbl>,
    ## #   ISO3_code <chr>, GRSF_uuid <chr>, GRSF_areaid <chr>, inmyersdb <dbl>,
    ## #   myersstockid <chr>, state <chr>

``` r
#units <- stock |> 
  #filter(tscategory == "CATCH or LANDINGS") |>
  #filter(tsunitslong == "Metric tons")
ts <- ts |> left_join(stock)
```

    ## Joining with `by = join_by(stockid, stocklong)`

``` r
ts
```

    ## # A tibble: 122,255 × 24
    ##    assessid     stockid stocklong tsid  tsyear tsvalue tscategory tsshort tslong
    ##    <chr>        <chr>   <chr>     <chr>  <dbl>   <dbl> <chr>      <chr>   <chr> 
    ##  1 ABARES-BGRD… BGRDRSE Blue gre… TCbe…   1960      NA CATCH or … TCbest  Gener…
    ##  2 ABARES-BGRD… BGRDRSE Blue gre… TCbe…   1961      NA CATCH or … TCbest  Gener…
    ##  3 ABARES-BGRD… BGRDRSE Blue gre… TCbe…   1962      NA CATCH or … TCbest  Gener…
    ##  4 ABARES-BGRD… BGRDRSE Blue gre… TCbe…   1963      NA CATCH or … TCbest  Gener…
    ##  5 ABARES-BGRD… BGRDRSE Blue gre… TCbe…   1964      NA CATCH or … TCbest  Gener…
    ##  6 ABARES-BGRD… BGRDRSE Blue gre… TCbe…   1965      NA CATCH or … TCbest  Gener…
    ##  7 ABARES-BGRD… BGRDRSE Blue gre… TCbe…   1966      NA CATCH or … TCbest  Gener…
    ##  8 ABARES-BGRD… BGRDRSE Blue gre… TCbe…   1967      NA CATCH or … TCbest  Gener…
    ##  9 ABARES-BGRD… BGRDRSE Blue gre… TCbe…   1968      NA CATCH or … TCbest  Gener…
    ## 10 ABARES-BGRD… BGRDRSE Blue gre… TCbe…   1969      NA CATCH or … TCbest  Gener…
    ## # ℹ 122,245 more rows
    ## # ℹ 15 more variables: tsunitsshort <chr>, tsunitslong <chr>, tsn <dbl>,
    ## #   scientificname <chr>, commonname <chr>, areaid <chr>, region <chr>,
    ## #   primary_country <chr>, primary_FAOarea <dbl>, ISO3_code <chr>,
    ## #   GRSF_uuid <chr>, GRSF_areaid <chr>, inmyersdb <dbl>, myersstockid <chr>,
    ## #   state <chr>
…
    ## Joining with `by = join_by(stockid, stocklong)`

``` r
area <- read_xlsx(xlsx, sheet = "area")
area
```

    ## # A tibble: 897 × 6
    ##    country   areatype areacode areaname                 alternateareaname areaid
    ##    <chr>     <chr>    <chr>    <chr>                    <chr>             <chr> 
    ##  1 Argentina CFP      ARG-N    Northern Argentina       NA                Argen…
    ##  2 Argentina CFP      ARG-S    Southern Argentina       NA                Argen…
    ##  3 Australia AFMA     CASCADE  Cascade Plateau          NA                Austr…
    ##  4 Australia AFMA     EAUS     Eastern Australia        NA                Austr…
    ##  5 Australia AFMA     ESE      Eastern half of Southea… NA                Austr…
    ##  6 Australia AFMA     GAB      Great Australian Bight   NA                Austr…
    ##  7 Australia AFMA     MI       Macquarie Island         <NA>              Austr…
    ##  8 Australia AFMA     NAUST    Northern Australia       NA                Austr…
    ##  9 Australia AFMA     NSWWA    New South Wales to West… NA                Austr…
    ## 10 Australia AFMA     SE       Southeast Australia      NA                Austr…
    ## # ℹ 887 more rows

``` r
ts <- ts |> left_join(area)
```

    ## Joining with `by = join_by(areaid)`

``` r
ts
```

    ## # A tibble: 122,255 × 29
    ##    assessid     stockid stocklong tsid  tsyear tsvalue tscategory tsshort tslong
    ##    <chr>        <chr>   <chr>     <chr>  <dbl>   <dbl> <chr>      <chr>   <chr> 
    ##  1 ABARES-BGRD… BGRDRSE Blue gre… TCbe…   1960      NA CATCH or … TCbest  Gener…
    ##  2 ABARES-BGRD… BGRDRSE Blue gre… TCbe…   1961      NA CATCH or … TCbest  Gener…
    ##  3 ABARES-BGRD… BGRDRSE Blue gre… TCbe…   1962      NA CATCH or … TCbest  Gener…
    ##  4 ABARES-BGRD… BGRDRSE Blue gre… TCbe…   1963      NA CATCH or … TCbest  Gener…
    ##  5 ABARES-BGRD… BGRDRSE Blue gre… TCbe…   1964      NA CATCH or … TCbest  Gener…
    ##  6 ABARES-BGRD… BGRDRSE Blue gre… TCbe…   1965      NA CATCH or … TCbest  Gener…
    ##  7 ABARES-BGRD… BGRDRSE Blue gre… TCbe…   1966      NA CATCH or … TCbest  Gener…
    ##  8 ABARES-BGRD… BGRDRSE Blue gre… TCbe…   1967      NA CATCH or … TCbest  Gener…
    ##  9 ABARES-BGRD… BGRDRSE Blue gre… TCbe…   1968      NA CATCH or … TCbest  Gener…
    ## 10 ABARES-BGRD… BGRDRSE Blue gre… TCbe…   1969      NA CATCH or … TCbest  Gener…
    ## # ℹ 122,245 more rows
    ## # ℹ 20 more variables: tsunitsshort <chr>, tsunitslong <chr>, tsn <dbl>,
    ## #   scientificname <chr>, commonname <chr>, areaid <chr>, region <chr>,
    ## #   primary_country <chr>, primary_FAOarea <dbl>, ISO3_code <chr>,
    ## #   GRSF_uuid <chr>, GRSF_areaid <chr>, inmyersdb <dbl>, myersstockid <chr>,
    ## #   state <chr>, country <chr>, areatype <chr>, areacode <chr>, areaname <chr>,
    ## #   alternateareaname <chr>
…
